<?xml version="1.0" encoding="UTF-8" standalone="no"?>
<!DOCTYPE svg PUBLIC "-//W3C//DTD SVG 1.1//EN" "http://www.w3.org/Graphics/SVG/1.1/DTD/svg11.dtd">
<svg width="100%" height="100%" viewBox="0 0 512 512" version="1.1" xmlns="http://www.w3.org/2000/svg" xmlns:xlink="http://www.w3.org/1999/xlink" xml:space="preserve" xmlns:serif="http://www.serif.com/" style="fill-rule:evenodd;clip-rule:evenodd;stroke-linejoin:round;stroke-miterlimit:2;">
    <g transform="matrix(0.51682,0,0,0.51682,-158.228,-145.599)">
        <path d="M723.908,881.905L683.351,1054L527.444,1054L551.205,953.175C603.278,926.493 662.384,902.381 723.908,881.905ZM997.172,818.41C825.021,809.014 680.191,846.746 546.174,905.307L482.368,767.348C523.113,748.503 564.585,732.369 606.429,718.851L657.978,500.122L813.884,500.122L771.713,679.058C826.924,670.143 881.92,665.527 935.88,665.01L964.715,542.656L1120.62,542.656L1014,995.088L858.089,995.088L895.684,835.566C926.791,829.103 964.904,822.656 997.172,818.41Z" style="fill:white;"/>
    </g>
</svg>
